module aibook

go 1.21.4

require (
	entgo.io/ent v0.12.5
	github.com/goccy/go-json v0.10.2
	github.com/gofiber/fiber/v2 v2.51.0
	github.com/spf13/viper v1.18.0
)

require (
	ariga.io/atlas v0.14.1-0.20230918065911-83ad451a4935 // indirect
	gitea.com/lunny/log v0.0.0-20190322053110-01b5df579c4e // indirect
	github.com/agext/levenshtein v1.2.1 // indirect
	github.com/ahl5esoft/golang-underscore v2.0.0+incompatible // indirect
	github.com/andybalholm/brotli v1.0.6 // indirect
	github.com/apparentlymart/go-textseg/v13 v13.0.0 // indirect
	github.com/cespare/xxhash/v2 v2.2.0 // indirect
	github.com/deatil/go-cryptobin v1.0.2039 // indirect
	github.com/denisenkom/go-mssqldb v0.12.3 // indirect
	github.com/dgryski/go-rendezvous v0.0.0-20200823014737-9f7001d12a5f // indirect
	github.com/fasthttp/websocket v1.5.7 // indirect
	github.com/fsnotify/fsnotify v1.7.0 // indirect
	github.com/go-openapi/inflect v0.19.0 // indirect
	github.com/go-sql-driver/mysql v1.7.0 // indirect
	github.com/gobwas/glob v0.2.3 // indirect
	github.com/gofiber/contrib/websocket v1.3.0 // indirect
	github.com/gofiber/storage/memory/v2 v2.0.0 // indirect
	github.com/gofiber/storage/redis/v3 v3.1.0 // indirect
	github.com/golang-sql/civil v0.0.0-20190719163853-cb61b32ac6fe // indirect
	github.com/golang-sql/sqlexp v0.1.0 // indirect
	github.com/golang/snappy v0.0.4 // indirect
	github.com/google/go-cmp v0.5.9 // indirect
	github.com/google/uuid v1.5.0 // indirect
	github.com/hashicorp/hcl v1.0.0 // indirect
	github.com/hashicorp/hcl/v2 v2.13.0 // indirect
	github.com/inconshreveable/mousetrap v1.1.0 // indirect
	github.com/jackc/pgx v3.6.2+incompatible // indirect
	github.com/json-iterator/go v1.1.12 // indirect
	github.com/klauspost/compress v1.17.4 // indirect
	github.com/lib/pq v1.10.9 // indirect
	github.com/magiconair/properties v1.8.7 // indirect
	github.com/mattn/go-colorable v0.1.13 // indirect
	github.com/mattn/go-isatty v0.0.20 // indirect
	github.com/mattn/go-runewidth v0.0.15 // indirect
	github.com/mattn/go-sqlite3 v1.14.16 // indirect
	github.com/mitchellh/go-wordwrap v0.0.0-20150314170334-ad45545899c7 // indirect
	github.com/mitchellh/mapstructure v1.5.0 // indirect
	github.com/modern-go/concurrent v0.0.0-20180306012644-bacd9c7ef1dd // indirect
	github.com/modern-go/reflect2 v1.0.2 // indirect
	github.com/pelletier/go-toml/v2 v2.1.0 // indirect
	github.com/pkg/errors v0.9.1 // indirect
	github.com/redis/go-redis/v9 v9.3.0 // indirect
	github.com/rivo/uniseg v0.4.4 // indirect
	github.com/sagikazarmark/locafero v0.4.0 // indirect
	github.com/sagikazarmark/slog-shim v0.1.0 // indirect
	github.com/savsgio/gotils v0.0.0-20230208104028-c358bd845dee // indirect
	github.com/sourcegraph/conc v0.3.0 // indirect
	github.com/spf13/afero v1.11.0 // indirect
	github.com/spf13/cast v1.6.0 // indirect
	github.com/spf13/cobra v1.7.0 // indirect
	github.com/spf13/pflag v1.0.5 // indirect
	github.com/subosito/gotenv v1.6.0 // indirect
	github.com/syndtr/goleveldb v1.0.0 // indirect
	github.com/valyala/bytebufferpool v1.0.0 // indirect
	github.com/valyala/fasthttp v1.51.0 // indirect
	github.com/valyala/tcplisten v1.0.0 // indirect
	github.com/zclconf/go-cty v1.8.0 // indirect
	go.uber.org/atomic v1.9.0 // indirect
	go.uber.org/dig v1.17.0 // indirect
	go.uber.org/fx v1.20.1 // indirect
	go.uber.org/multierr v1.9.0 // indirect
	go.uber.org/zap v1.23.0 // indirect
	golang.org/x/crypto v0.16.0 // indirect
	golang.org/x/exp v0.0.0-20230905200255-921286631fa9 // indirect
	golang.org/x/mod v0.12.0 // indirect
	golang.org/x/net v0.19.0 // indirect
	golang.org/x/sys v0.15.0 // indirect
	golang.org/x/text v0.14.0 // indirect
	gopkg.in/ini.v1 v1.67.0 // indirect
	gopkg.in/yaml.v3 v3.0.1 // indirect
	xorm.io/builder v0.3.13 // indirect
	xorm.io/reverse v0.1.3 // indirect
	xorm.io/xorm v1.3.4 // indirect
)
